G75*
%MOIN*%
%OFA0B0*%
%FSLAX25Y25*%
%IPPOS*%
%LPD*%
%AMOC8*
5,1,8,0,0,1.08239X$1,22.5*
%
%ADD10C,0.00800*%
%ADD11C,0.00500*%
%ADD12C,0.00600*%
D10*
X0024200Y0012200D02*
X0027200Y0012200D01*
X0027200Y0011200D01*
X0027200Y0012200D02*
X0030200Y0012200D01*
X0030200Y0032200D01*
X0027200Y0032200D01*
X0027200Y0033200D01*
X0027200Y0032200D02*
X0024200Y0032200D01*
X0024200Y0012200D01*
X0034200Y0012200D02*
X0037200Y0012200D01*
X0037200Y0011200D01*
X0037200Y0012200D02*
X0040200Y0012200D01*
X0040200Y0032200D01*
X0037200Y0032200D01*
X0037200Y0033200D01*
X0037200Y0032200D02*
X0034200Y0032200D01*
X0034200Y0012200D01*
X0037200Y0051200D02*
X0037200Y0052200D01*
X0034200Y0052200D01*
X0034200Y0072200D01*
X0037200Y0072200D01*
X0037200Y0073200D01*
X0037200Y0072200D02*
X0040200Y0072200D01*
X0040200Y0052200D01*
X0037200Y0052200D01*
X0039700Y0054700D02*
X0034700Y0054700D01*
X0030200Y0052200D02*
X0027200Y0052200D01*
X0027200Y0051200D01*
X0027200Y0052200D02*
X0024200Y0052200D01*
X0024200Y0072200D01*
X0027200Y0072200D01*
X0027200Y0073200D01*
X0027200Y0072200D02*
X0030200Y0072200D01*
X0030200Y0052200D01*
X0029700Y0054700D02*
X0024700Y0054700D01*
X0024700Y0092200D02*
X0019700Y0092200D01*
X0017200Y0094700D01*
X0014700Y0092200D01*
X0009700Y0092200D01*
X0007200Y0094700D01*
X0007200Y0099700D01*
X0009700Y0102200D01*
X0014700Y0102200D01*
X0017200Y0099700D01*
X0019700Y0102200D01*
X0024700Y0102200D01*
X0027200Y0099700D01*
X0029700Y0102200D01*
X0034700Y0102200D01*
X0037200Y0099700D01*
X0039700Y0102200D01*
X0044700Y0102200D01*
X0047200Y0099700D01*
X0047200Y0094700D01*
X0044700Y0092200D01*
X0039700Y0092200D01*
X0037200Y0094700D01*
X0034700Y0092200D01*
X0029700Y0092200D01*
X0027200Y0094700D01*
X0024700Y0092200D01*
X0062200Y0094700D02*
X0064700Y0092200D01*
X0069700Y0092200D01*
X0072200Y0094700D01*
X0074700Y0092200D01*
X0079700Y0092200D01*
X0082200Y0094700D01*
X0082200Y0099700D01*
X0079700Y0102200D01*
X0074700Y0102200D01*
X0072200Y0099700D01*
X0069700Y0102200D01*
X0064700Y0102200D01*
X0062200Y0099700D01*
X0062200Y0094700D01*
X0111200Y0087200D02*
X0112200Y0087200D01*
X0112200Y0090200D01*
X0132200Y0090200D01*
X0132200Y0087200D01*
X0133200Y0087200D01*
X0132200Y0087200D02*
X0132200Y0084200D01*
X0112200Y0084200D01*
X0112200Y0087200D01*
X0112200Y0080200D02*
X0132200Y0080200D01*
X0132200Y0077200D01*
X0133200Y0077200D01*
X0132200Y0077200D02*
X0132200Y0074200D01*
X0112200Y0074200D01*
X0112200Y0077200D01*
X0111200Y0077200D01*
X0112200Y0077200D02*
X0112200Y0080200D01*
X0114700Y0067200D02*
X0112200Y0064700D01*
X0112200Y0059700D01*
X0114700Y0057200D01*
X0119700Y0057200D01*
X0122200Y0059700D01*
X0124700Y0057200D01*
X0129700Y0057200D01*
X0132200Y0059700D01*
X0134700Y0057200D01*
X0139700Y0057200D01*
X0142200Y0059700D01*
X0142200Y0064700D01*
X0139700Y0067200D01*
X0134700Y0067200D01*
X0132200Y0064700D01*
X0129700Y0067200D01*
X0124700Y0067200D01*
X0122200Y0064700D01*
X0119700Y0067200D01*
X0114700Y0067200D01*
X0114700Y0047200D02*
X0112200Y0044700D01*
X0112200Y0039700D01*
X0114700Y0037200D01*
X0119700Y0037200D01*
X0122200Y0039700D01*
X0124700Y0037200D01*
X0129700Y0037200D01*
X0132200Y0039700D01*
X0134700Y0037200D01*
X0139700Y0037200D01*
X0142200Y0039700D01*
X0142200Y0044700D01*
X0139700Y0047200D01*
X0134700Y0047200D01*
X0132200Y0044700D01*
X0129700Y0047200D01*
X0124700Y0047200D01*
X0122200Y0044700D01*
X0119700Y0047200D01*
X0114700Y0047200D01*
X0112200Y0030200D02*
X0132200Y0030200D01*
X0132200Y0027200D01*
X0133200Y0027200D01*
X0132200Y0027200D02*
X0132200Y0024200D01*
X0112200Y0024200D01*
X0112200Y0027200D01*
X0111200Y0027200D01*
X0112200Y0027200D02*
X0112200Y0030200D01*
X0112200Y0020200D02*
X0112200Y0017200D01*
X0111200Y0017200D01*
X0112200Y0017200D02*
X0112200Y0014200D01*
X0132200Y0014200D01*
X0132200Y0017200D01*
X0133200Y0017200D01*
X0132200Y0017200D02*
X0132200Y0020200D01*
X0112200Y0020200D01*
D11*
X0120240Y0021050D02*
X0120240Y0022952D01*
X0121191Y0022952D01*
X0121508Y0022635D01*
X0121508Y0022001D01*
X0121191Y0021684D01*
X0120240Y0021684D01*
X0120240Y0021450D02*
X0120240Y0023352D01*
X0121191Y0023352D01*
X0121508Y0023035D01*
X0121508Y0022401D01*
X0121191Y0022084D01*
X0120240Y0022084D01*
X0120874Y0022084D02*
X0121508Y0021450D01*
X0121508Y0021050D02*
X0120874Y0021684D01*
X0122450Y0021767D02*
X0122767Y0021450D01*
X0123401Y0021450D01*
X0123718Y0021767D01*
X0123718Y0022401D01*
X0123401Y0022718D01*
X0123084Y0022718D01*
X0122450Y0022401D01*
X0122450Y0023352D01*
X0123718Y0023352D01*
X0123401Y0022952D02*
X0122450Y0022001D01*
X0123718Y0022001D01*
X0123401Y0021050D02*
X0123401Y0022952D01*
X0115928Y0047950D02*
X0114660Y0047950D01*
X0115928Y0049218D01*
X0115928Y0049535D01*
X0115611Y0049852D01*
X0114977Y0049852D01*
X0114660Y0049535D01*
X0113718Y0049852D02*
X0113084Y0049852D01*
X0113401Y0049852D02*
X0113401Y0048267D01*
X0113084Y0047950D01*
X0112767Y0047950D01*
X0112450Y0048267D01*
X0112767Y0067950D02*
X0113084Y0067950D01*
X0113401Y0068267D01*
X0113401Y0069852D01*
X0113084Y0069852D02*
X0113718Y0069852D01*
X0114660Y0069535D02*
X0114977Y0069852D01*
X0115611Y0069852D01*
X0115928Y0069535D01*
X0115928Y0069218D01*
X0115611Y0068901D01*
X0115928Y0068584D01*
X0115928Y0068267D01*
X0115611Y0067950D01*
X0114977Y0067950D01*
X0114660Y0068267D01*
X0115294Y0068901D02*
X0115611Y0068901D01*
X0112767Y0067950D02*
X0112450Y0068267D01*
X0120240Y0071050D02*
X0120240Y0072952D01*
X0121191Y0072952D01*
X0121508Y0072635D01*
X0121508Y0072001D01*
X0121191Y0071684D01*
X0120240Y0071684D01*
X0120874Y0071684D02*
X0121508Y0071050D01*
X0122450Y0071367D02*
X0122767Y0071050D01*
X0123401Y0071050D01*
X0123718Y0071367D01*
X0123718Y0071684D01*
X0123401Y0072001D01*
X0123084Y0072001D01*
X0123401Y0072001D02*
X0123718Y0072318D01*
X0123718Y0072635D01*
X0123401Y0072952D01*
X0122767Y0072952D01*
X0122450Y0072635D01*
X0122767Y0091450D02*
X0122450Y0091767D01*
X0122450Y0092401D01*
X0123401Y0092401D01*
X0123718Y0092084D01*
X0123718Y0091767D01*
X0123401Y0091450D01*
X0122767Y0091450D01*
X0122450Y0092401D02*
X0123084Y0093035D01*
X0123718Y0093352D01*
X0121508Y0093035D02*
X0121508Y0092401D01*
X0121191Y0092084D01*
X0120240Y0092084D01*
X0120874Y0092084D02*
X0121508Y0091450D01*
X0120240Y0091450D02*
X0120240Y0093352D01*
X0121191Y0093352D01*
X0121508Y0093035D01*
X0065928Y0103901D02*
X0064660Y0103901D01*
X0065611Y0104852D01*
X0065611Y0102950D01*
X0063401Y0103267D02*
X0063401Y0104852D01*
X0063084Y0104852D02*
X0063718Y0104852D01*
X0063401Y0103267D02*
X0063084Y0102950D01*
X0062767Y0102950D01*
X0062450Y0103267D01*
X0010928Y0102950D02*
X0009660Y0102950D01*
X0010294Y0102950D02*
X0010294Y0104852D01*
X0009660Y0104218D01*
X0008718Y0104852D02*
X0008084Y0104852D01*
X0008401Y0104852D02*
X0008401Y0103267D01*
X0008084Y0102950D01*
X0007767Y0102950D01*
X0007450Y0103267D01*
X0032265Y0063718D02*
X0031948Y0063401D01*
X0031948Y0062767D01*
X0032265Y0062450D01*
X0032265Y0061508D02*
X0031948Y0061191D01*
X0031948Y0060240D01*
X0033850Y0060240D01*
X0033850Y0061191D01*
X0033533Y0061508D01*
X0032265Y0061508D01*
X0033850Y0062450D02*
X0032582Y0063718D01*
X0032265Y0063718D01*
X0033850Y0063718D02*
X0033850Y0062450D01*
X0041948Y0063084D02*
X0043850Y0063084D01*
X0043850Y0062450D02*
X0043850Y0063718D01*
X0042582Y0062450D02*
X0041948Y0063084D01*
X0042265Y0061508D02*
X0041948Y0061191D01*
X0041948Y0060240D01*
X0043850Y0060240D01*
X0043850Y0061191D01*
X0043533Y0061508D01*
X0042265Y0061508D01*
X0032950Y0023718D02*
X0032950Y0022450D01*
X0031682Y0023718D01*
X0031365Y0023718D01*
X0031048Y0023401D01*
X0031048Y0022767D01*
X0031365Y0022450D01*
X0031365Y0021508D02*
X0031999Y0021508D01*
X0032316Y0021191D01*
X0032316Y0020240D01*
X0032316Y0020874D02*
X0032950Y0021508D01*
X0032950Y0020240D02*
X0031048Y0020240D01*
X0031048Y0021191D01*
X0031365Y0021508D01*
X0022950Y0021508D02*
X0022316Y0020874D01*
X0022316Y0021191D02*
X0022316Y0020240D01*
X0022950Y0020240D02*
X0021048Y0020240D01*
X0021048Y0021191D01*
X0021365Y0021508D01*
X0021999Y0021508D01*
X0022316Y0021191D01*
X0021682Y0022450D02*
X0021048Y0023084D01*
X0022950Y0023084D01*
X0022950Y0022450D02*
X0022950Y0023718D01*
X0072173Y0015454D02*
X0073674Y0015454D01*
X0072923Y0015454D02*
X0072923Y0010950D01*
X0072173Y0010950D02*
X0073674Y0010950D01*
X0075242Y0011701D02*
X0075993Y0010950D01*
X0077494Y0010950D01*
X0078245Y0011701D01*
X0079846Y0010950D02*
X0082849Y0010950D01*
X0081347Y0010950D02*
X0081347Y0015454D01*
X0079846Y0013953D01*
X0078245Y0014703D02*
X0077494Y0015454D01*
X0075993Y0015454D01*
X0075242Y0014703D01*
X0075242Y0011701D01*
D12*
X0076200Y0017200D02*
X0083700Y0017200D01*
X0083700Y0087200D01*
X0060700Y0087200D01*
X0060700Y0017200D01*
X0068200Y0017200D01*
X0068202Y0017326D01*
X0068208Y0017451D01*
X0068218Y0017576D01*
X0068232Y0017701D01*
X0068249Y0017826D01*
X0068271Y0017950D01*
X0068296Y0018073D01*
X0068326Y0018195D01*
X0068359Y0018316D01*
X0068396Y0018436D01*
X0068436Y0018555D01*
X0068481Y0018672D01*
X0068529Y0018789D01*
X0068581Y0018903D01*
X0068636Y0019016D01*
X0068695Y0019127D01*
X0068757Y0019236D01*
X0068823Y0019343D01*
X0068892Y0019448D01*
X0068964Y0019551D01*
X0069039Y0019652D01*
X0069118Y0019750D01*
X0069200Y0019845D01*
X0069284Y0019938D01*
X0069372Y0020028D01*
X0069462Y0020116D01*
X0069555Y0020200D01*
X0069650Y0020282D01*
X0069748Y0020361D01*
X0069849Y0020436D01*
X0069952Y0020508D01*
X0070057Y0020577D01*
X0070164Y0020643D01*
X0070273Y0020705D01*
X0070384Y0020764D01*
X0070497Y0020819D01*
X0070611Y0020871D01*
X0070728Y0020919D01*
X0070845Y0020964D01*
X0070964Y0021004D01*
X0071084Y0021041D01*
X0071205Y0021074D01*
X0071327Y0021104D01*
X0071450Y0021129D01*
X0071574Y0021151D01*
X0071699Y0021168D01*
X0071824Y0021182D01*
X0071949Y0021192D01*
X0072074Y0021198D01*
X0072200Y0021200D01*
X0072326Y0021198D01*
X0072451Y0021192D01*
X0072576Y0021182D01*
X0072701Y0021168D01*
X0072826Y0021151D01*
X0072950Y0021129D01*
X0073073Y0021104D01*
X0073195Y0021074D01*
X0073316Y0021041D01*
X0073436Y0021004D01*
X0073555Y0020964D01*
X0073672Y0020919D01*
X0073789Y0020871D01*
X0073903Y0020819D01*
X0074016Y0020764D01*
X0074127Y0020705D01*
X0074236Y0020643D01*
X0074343Y0020577D01*
X0074448Y0020508D01*
X0074551Y0020436D01*
X0074652Y0020361D01*
X0074750Y0020282D01*
X0074845Y0020200D01*
X0074938Y0020116D01*
X0075028Y0020028D01*
X0075116Y0019938D01*
X0075200Y0019845D01*
X0075282Y0019750D01*
X0075361Y0019652D01*
X0075436Y0019551D01*
X0075508Y0019448D01*
X0075577Y0019343D01*
X0075643Y0019236D01*
X0075705Y0019127D01*
X0075764Y0019016D01*
X0075819Y0018903D01*
X0075871Y0018789D01*
X0075919Y0018672D01*
X0075964Y0018555D01*
X0076004Y0018436D01*
X0076041Y0018316D01*
X0076074Y0018195D01*
X0076104Y0018073D01*
X0076129Y0017950D01*
X0076151Y0017826D01*
X0076168Y0017701D01*
X0076182Y0017576D01*
X0076192Y0017451D01*
X0076198Y0017326D01*
X0076200Y0017200D01*
M02*
