G75*
%MOIN*%
%OFA0B0*%
%FSLAX25Y25*%
%IPPOS*%
%LPD*%
%AMOC8*
5,1,8,0,0,1.08239X$1,22.5*
%
%ADD10C,0.08200*%
%ADD11C,0.06400*%
%ADD12C,0.10249*%
D10*
X0027200Y0007200D03*
X0037200Y0007200D03*
X0037200Y0037200D03*
X0027200Y0037200D03*
X0027200Y0047200D03*
X0037200Y0047200D03*
X0037200Y0077200D03*
X0027200Y0077200D03*
X0022200Y0097200D03*
X0012200Y0097200D03*
X0032200Y0097200D03*
X0042200Y0097200D03*
X0067200Y0097200D03*
X0077200Y0097200D03*
X0107200Y0087200D03*
X0107200Y0077200D03*
X0117200Y0062200D03*
X0127200Y0062200D03*
X0137200Y0062200D03*
X0137200Y0077200D03*
X0137200Y0087200D03*
X0137200Y0042200D03*
X0127200Y0042200D03*
X0117200Y0042200D03*
X0107200Y0027200D03*
X0107200Y0017200D03*
X0137200Y0017200D03*
X0137200Y0027200D03*
D11*
X0090000Y0022200D02*
X0084400Y0022200D01*
X0084400Y0032200D02*
X0090000Y0032200D01*
X0090000Y0042200D02*
X0084400Y0042200D01*
X0084400Y0052200D02*
X0090000Y0052200D01*
X0090000Y0062200D02*
X0084400Y0062200D01*
X0084400Y0072200D02*
X0090000Y0072200D01*
X0090000Y0082200D02*
X0084400Y0082200D01*
X0060000Y0082200D02*
X0054400Y0082200D01*
X0054400Y0072200D02*
X0060000Y0072200D01*
X0060000Y0062200D02*
X0054400Y0062200D01*
X0054400Y0052200D02*
X0060000Y0052200D01*
X0060000Y0042200D02*
X0054400Y0042200D01*
X0054400Y0032200D02*
X0060000Y0032200D01*
X0060000Y0022200D02*
X0054400Y0022200D01*
D12*
X0012200Y0012200D03*
X0137200Y0097200D03*
M02*
