G75*
%MOIN*%
%OFA0B0*%
%FSLAX25Y25*%
%IPPOS*%
%LPD*%
%AMOC8*
5,1,8,0,0,1.08239X$1,22.5*
%
%ADD10C,0.07400*%
%ADD11C,0.05600*%
%ADD12C,0.01600*%
%ADD13C,0.02400*%
%ADD14C,0.09449*%
D10*
X0027200Y0007200D03*
X0037200Y0007200D03*
X0037200Y0037200D03*
X0027200Y0037200D03*
X0027200Y0047200D03*
X0037200Y0047200D03*
X0037200Y0077200D03*
X0027200Y0077200D03*
X0022200Y0097200D03*
X0012200Y0097200D03*
X0032200Y0097200D03*
X0042200Y0097200D03*
X0067200Y0097200D03*
X0077200Y0097200D03*
X0107200Y0087200D03*
X0107200Y0077200D03*
X0117200Y0062200D03*
X0127200Y0062200D03*
X0137200Y0062200D03*
X0137200Y0077200D03*
X0137200Y0087200D03*
X0137200Y0042200D03*
X0127200Y0042200D03*
X0117200Y0042200D03*
X0107200Y0027200D03*
X0107200Y0017200D03*
X0137200Y0017200D03*
X0137200Y0027200D03*
D11*
X0090000Y0022200D02*
X0084400Y0022200D01*
X0084400Y0032200D02*
X0090000Y0032200D01*
X0090000Y0042200D02*
X0084400Y0042200D01*
X0084400Y0052200D02*
X0090000Y0052200D01*
X0090000Y0062200D02*
X0084400Y0062200D01*
X0084400Y0072200D02*
X0090000Y0072200D01*
X0090000Y0082200D02*
X0084400Y0082200D01*
X0060000Y0082200D02*
X0054400Y0082200D01*
X0054400Y0072200D02*
X0060000Y0072200D01*
X0060000Y0062200D02*
X0054400Y0062200D01*
X0054400Y0052200D02*
X0060000Y0052200D01*
X0060000Y0042200D02*
X0054400Y0042200D01*
X0054400Y0032200D02*
X0060000Y0032200D01*
X0060000Y0022200D02*
X0054400Y0022200D01*
D12*
X0057200Y0022200D02*
X0057200Y0032200D01*
X0067200Y0032200D01*
X0077200Y0042200D01*
X0087200Y0042200D01*
X0087200Y0062200D02*
X0077200Y0062200D01*
X0067200Y0072200D01*
X0057200Y0072200D01*
X0057200Y0082200D01*
X0042200Y0087200D02*
X0037200Y0082200D01*
X0037200Y0077200D01*
X0027200Y0077200D02*
X0027200Y0082200D01*
X0032200Y0087200D01*
X0032200Y0097200D01*
X0042200Y0097200D02*
X0042200Y0087200D01*
X0037200Y0062200D02*
X0057200Y0062200D01*
X0037200Y0062200D02*
X0027200Y0052200D01*
X0027200Y0047200D01*
X0027200Y0037200D01*
X0037200Y0037200D02*
X0037200Y0042200D01*
X0057200Y0042200D01*
X0037200Y0042200D02*
X0037200Y0047200D01*
X0087200Y0022200D02*
X0092200Y0022200D01*
X0097200Y0017200D01*
X0107200Y0017200D01*
X0102200Y0072200D02*
X0087200Y0072200D01*
X0087200Y0082200D02*
X0102200Y0082200D01*
X0107200Y0087200D01*
X0107200Y0077200D02*
X0102200Y0072200D01*
D13*
X0004400Y0104961D02*
X0004400Y0004400D01*
X0022005Y0004400D01*
X0021732Y0004935D01*
X0021445Y0005818D01*
X0021300Y0006736D01*
X0021300Y0007200D01*
X0027200Y0007200D01*
X0037200Y0007200D01*
X0037200Y0007200D01*
X0037200Y0013100D01*
X0037664Y0013100D01*
X0038582Y0012955D01*
X0039465Y0012668D01*
X0040292Y0012246D01*
X0041044Y0011700D01*
X0041700Y0011044D01*
X0042246Y0010292D01*
X0042668Y0009465D01*
X0042955Y0008582D01*
X0043100Y0007664D01*
X0043100Y0007200D01*
X0037200Y0007200D01*
X0037200Y0007200D01*
X0037200Y0007200D01*
X0037200Y0013100D01*
X0036736Y0013100D01*
X0035818Y0012955D01*
X0034935Y0012668D01*
X0034108Y0012246D01*
X0033356Y0011700D01*
X0032700Y0011044D01*
X0032200Y0010356D01*
X0031700Y0011044D01*
X0031044Y0011700D01*
X0030292Y0012246D01*
X0029465Y0012668D01*
X0028582Y0012955D01*
X0027664Y0013100D01*
X0027200Y0013100D01*
X0027200Y0007200D01*
X0027200Y0007200D01*
X0027200Y0007200D01*
X0031300Y0007200D01*
X0037200Y0007200D01*
X0043100Y0007200D01*
X0043100Y0006736D01*
X0042955Y0005818D01*
X0042668Y0004935D01*
X0042395Y0004400D01*
X0143701Y0004400D01*
X0143701Y0092200D01*
X0140544Y0092200D01*
X0142202Y0090542D01*
X0143100Y0088374D01*
X0143100Y0086026D01*
X0142202Y0083858D01*
X0140542Y0082198D01*
X0140425Y0082150D01*
X0141044Y0081700D01*
X0141700Y0081044D01*
X0142246Y0080292D01*
X0142668Y0079465D01*
X0142955Y0078582D01*
X0143100Y0077664D01*
X0143100Y0077200D01*
X0137200Y0077200D01*
X0137200Y0077200D01*
X0143100Y0077200D01*
X0143100Y0076736D01*
X0142955Y0075818D01*
X0142668Y0074935D01*
X0142246Y0074108D01*
X0141700Y0073356D01*
X0141044Y0072700D01*
X0140292Y0072154D01*
X0139465Y0071732D01*
X0138582Y0071445D01*
X0137664Y0071300D01*
X0137200Y0071300D01*
X0137200Y0077200D01*
X0137200Y0077200D01*
X0137200Y0077200D01*
X0131300Y0077200D01*
X0131300Y0077664D01*
X0131445Y0078582D01*
X0131732Y0079465D01*
X0132154Y0080292D01*
X0132700Y0081044D01*
X0133356Y0081700D01*
X0133975Y0082150D01*
X0133858Y0082198D01*
X0132198Y0083858D01*
X0131300Y0086026D01*
X0131300Y0088374D01*
X0132198Y0090542D01*
X0133856Y0092200D01*
X0112200Y0092200D01*
X0111372Y0091372D01*
X0112144Y0090600D01*
X0112876Y0090600D01*
X0114126Y0090082D01*
X0120082Y0084126D01*
X0120600Y0082876D01*
X0120600Y0067144D01*
X0122200Y0065544D01*
X0123858Y0067202D01*
X0126026Y0068100D01*
X0128374Y0068100D01*
X0130542Y0067202D01*
X0132202Y0065542D01*
X0132250Y0065425D01*
X0132700Y0066044D01*
X0133356Y0066700D01*
X0134108Y0067246D01*
X0134935Y0067668D01*
X0135818Y0067955D01*
X0136736Y0068100D01*
X0137200Y0068100D01*
X0137200Y0062200D01*
X0137200Y0062200D01*
X0143100Y0062200D01*
X0143100Y0062664D01*
X0142955Y0063582D01*
X0142668Y0064465D01*
X0142246Y0065292D01*
X0141700Y0066044D01*
X0141044Y0066700D01*
X0140292Y0067246D01*
X0139465Y0067668D01*
X0138582Y0067955D01*
X0137664Y0068100D01*
X0137200Y0068100D01*
X0137200Y0062200D01*
X0137200Y0062200D01*
X0143100Y0062200D01*
X0143100Y0061736D01*
X0142955Y0060818D01*
X0142668Y0059935D01*
X0142246Y0059108D01*
X0141700Y0058356D01*
X0141044Y0057700D01*
X0140292Y0057154D01*
X0139465Y0056732D01*
X0138582Y0056445D01*
X0137664Y0056300D01*
X0137200Y0056300D01*
X0137200Y0062200D01*
X0137200Y0062200D01*
X0137200Y0056300D01*
X0136736Y0056300D01*
X0135818Y0056445D01*
X0134935Y0056732D01*
X0134108Y0057154D01*
X0133356Y0057700D01*
X0132700Y0058356D01*
X0132250Y0058975D01*
X0132202Y0058858D01*
X0130542Y0057198D01*
X0128374Y0056300D01*
X0126026Y0056300D01*
X0123858Y0057198D01*
X0122200Y0058856D01*
X0120542Y0057198D01*
X0118374Y0056300D01*
X0116026Y0056300D01*
X0113858Y0057198D01*
X0112198Y0058858D01*
X0111300Y0061026D01*
X0111300Y0063374D01*
X0112198Y0065542D01*
X0113800Y0067144D01*
X0113800Y0080792D01*
X0111468Y0083124D01*
X0110544Y0082200D01*
X0112202Y0080542D01*
X0113100Y0078374D01*
X0113100Y0076026D01*
X0112202Y0073858D01*
X0110542Y0072198D01*
X0108374Y0071300D01*
X0106026Y0071300D01*
X0105684Y0071442D01*
X0103899Y0069657D01*
X0102797Y0069200D01*
X0094071Y0069200D01*
X0092832Y0067961D01*
X0090995Y0067200D01*
X0083405Y0067200D01*
X0081568Y0066439D01*
X0080329Y0065200D01*
X0078443Y0065200D01*
X0069743Y0073899D01*
X0069743Y0073899D01*
X0068899Y0074743D01*
X0067797Y0075200D01*
X0064071Y0075200D01*
X0062832Y0076439D01*
X0060995Y0077200D01*
X0062832Y0077961D01*
X0064239Y0079368D01*
X0065000Y0081205D01*
X0065000Y0083195D01*
X0064239Y0085032D01*
X0062832Y0086439D01*
X0060995Y0087200D01*
X0053405Y0087200D01*
X0051568Y0086439D01*
X0050161Y0085032D01*
X0049400Y0083195D01*
X0049400Y0081205D01*
X0050161Y0079368D01*
X0051568Y0077961D01*
X0053405Y0077200D01*
X0051568Y0076439D01*
X0050161Y0075032D01*
X0049400Y0073195D01*
X0049400Y0071205D01*
X0050161Y0069368D01*
X0051568Y0067961D01*
X0053405Y0067200D01*
X0051568Y0066439D01*
X0050329Y0065200D01*
X0036603Y0065200D01*
X0035501Y0064743D01*
X0034657Y0063899D01*
X0024657Y0053899D01*
X0024200Y0052797D01*
X0024200Y0052343D01*
X0023858Y0052202D01*
X0022198Y0050542D01*
X0021300Y0048374D01*
X0021300Y0046026D01*
X0022198Y0043858D01*
X0023856Y0042200D01*
X0022198Y0040542D01*
X0021300Y0038374D01*
X0021300Y0036026D01*
X0022198Y0033858D01*
X0023858Y0032198D01*
X0026026Y0031300D01*
X0028374Y0031300D01*
X0030542Y0032198D01*
X0032200Y0033856D01*
X0033858Y0032198D01*
X0036026Y0031300D01*
X0038374Y0031300D01*
X0040542Y0032198D01*
X0042202Y0033858D01*
X0043100Y0036026D01*
X0043100Y0038374D01*
X0042758Y0039200D01*
X0050329Y0039200D01*
X0051568Y0037961D01*
X0053405Y0037200D01*
X0060995Y0037200D01*
X0062832Y0037961D01*
X0064239Y0039368D01*
X0065000Y0041205D01*
X0065000Y0043195D01*
X0064239Y0045032D01*
X0062832Y0046439D01*
X0060995Y0047200D01*
X0053405Y0047200D01*
X0051568Y0046439D01*
X0050329Y0045200D01*
X0042758Y0045200D01*
X0043100Y0046026D01*
X0043100Y0048374D01*
X0042202Y0050542D01*
X0040542Y0052202D01*
X0038374Y0053100D01*
X0036026Y0053100D01*
X0033858Y0052202D01*
X0032200Y0050544D01*
X0030993Y0051751D01*
X0038443Y0059200D01*
X0050329Y0059200D01*
X0051568Y0057961D01*
X0053405Y0057200D01*
X0060995Y0057200D01*
X0062832Y0057961D01*
X0064239Y0059368D01*
X0065000Y0061205D01*
X0065000Y0063195D01*
X0064239Y0065032D01*
X0062832Y0066439D01*
X0060995Y0067200D01*
X0053405Y0067200D01*
X0060995Y0067200D01*
X0062832Y0067961D01*
X0064071Y0069200D01*
X0065957Y0069200D01*
X0074657Y0060501D01*
X0075501Y0059657D01*
X0076603Y0059200D01*
X0080329Y0059200D01*
X0081568Y0057961D01*
X0083405Y0057200D01*
X0081568Y0056439D01*
X0080161Y0055032D01*
X0079400Y0053195D01*
X0079400Y0051205D01*
X0080161Y0049368D01*
X0081568Y0047961D01*
X0083405Y0047200D01*
X0090995Y0047200D01*
X0092832Y0047961D01*
X0094239Y0049368D01*
X0095000Y0051205D01*
X0095000Y0053195D01*
X0094239Y0055032D01*
X0092832Y0056439D01*
X0090995Y0057200D01*
X0083405Y0057200D01*
X0090995Y0057200D01*
X0092832Y0057961D01*
X0094239Y0059368D01*
X0095000Y0061205D01*
X0095000Y0063195D01*
X0094239Y0065032D01*
X0092832Y0066439D01*
X0090995Y0067200D01*
X0083405Y0067200D01*
X0081568Y0067961D01*
X0080161Y0069368D01*
X0079400Y0071205D01*
X0079400Y0073195D01*
X0080161Y0075032D01*
X0081568Y0076439D01*
X0083405Y0077200D01*
X0090995Y0077200D01*
X0092832Y0076439D01*
X0094071Y0075200D01*
X0100957Y0075200D01*
X0101442Y0075684D01*
X0101300Y0076026D01*
X0101300Y0078374D01*
X0101642Y0079200D01*
X0094071Y0079200D01*
X0092832Y0077961D01*
X0090995Y0077200D01*
X0083405Y0077200D01*
X0081568Y0077961D01*
X0080161Y0079368D01*
X0079400Y0081205D01*
X0079400Y0082200D01*
X0067200Y0082200D01*
X0067200Y0097200D01*
X0067200Y0097200D01*
X0067200Y0104961D01*
X0004400Y0104961D01*
X0004400Y0103803D02*
X0067200Y0103803D01*
X0067200Y0103100D02*
X0066736Y0103100D01*
X0065818Y0102955D01*
X0064935Y0102668D01*
X0064108Y0102246D01*
X0063356Y0101700D01*
X0062700Y0101044D01*
X0062154Y0100292D01*
X0061732Y0099465D01*
X0061445Y0098582D01*
X0061300Y0097664D01*
X0061300Y0097200D01*
X0067200Y0097200D01*
X0067200Y0097200D01*
X0067200Y0097200D01*
X0067200Y0103100D01*
X0067200Y0101405D02*
X0067200Y0101405D01*
X0067200Y0099006D02*
X0067200Y0099006D01*
X0067200Y0097200D02*
X0061300Y0097200D01*
X0061300Y0096736D01*
X0061445Y0095818D01*
X0061732Y0094935D01*
X0062154Y0094108D01*
X0062700Y0093356D01*
X0063356Y0092700D01*
X0064108Y0092154D01*
X0064935Y0091732D01*
X0065818Y0091445D01*
X0066736Y0091300D01*
X0067200Y0091300D01*
X0067200Y0097200D01*
X0067200Y0096608D02*
X0067200Y0096608D01*
X0067200Y0094209D02*
X0067200Y0094209D01*
X0067200Y0091811D02*
X0067200Y0091811D01*
X0064781Y0091811D02*
X0045200Y0091811D01*
X0045200Y0092057D02*
X0045542Y0092198D01*
X0047202Y0093858D01*
X0048100Y0096026D01*
X0048100Y0098374D01*
X0047202Y0100542D01*
X0045542Y0102202D01*
X0043374Y0103100D01*
X0041026Y0103100D01*
X0038858Y0102202D01*
X0037200Y0100544D01*
X0035542Y0102202D01*
X0033374Y0103100D01*
X0031026Y0103100D01*
X0028858Y0102202D01*
X0027200Y0100544D01*
X0025542Y0102202D01*
X0023374Y0103100D01*
X0021026Y0103100D01*
X0018858Y0102202D01*
X0017198Y0100542D01*
X0017150Y0100425D01*
X0016700Y0101044D01*
X0016044Y0101700D01*
X0015292Y0102246D01*
X0014465Y0102668D01*
X0013582Y0102955D01*
X0012664Y0103100D01*
X0012200Y0103100D01*
X0012200Y0097200D01*
X0012200Y0097200D01*
X0012200Y0097200D01*
X0006300Y0097200D01*
X0006300Y0097664D01*
X0006445Y0098582D01*
X0006732Y0099465D01*
X0007154Y0100292D01*
X0007700Y0101044D01*
X0008356Y0101700D01*
X0009108Y0102246D01*
X0009935Y0102668D01*
X0010818Y0102955D01*
X0011736Y0103100D01*
X0012200Y0103100D01*
X0012200Y0097200D01*
X0012200Y0091300D01*
X0012664Y0091300D01*
X0013582Y0091445D01*
X0014465Y0091732D01*
X0015292Y0092154D01*
X0016044Y0092700D01*
X0016700Y0093356D01*
X0017150Y0093975D01*
X0017198Y0093858D01*
X0018858Y0092198D01*
X0021026Y0091300D01*
X0023374Y0091300D01*
X0025542Y0092198D01*
X0027200Y0093856D01*
X0028858Y0092198D01*
X0029200Y0092057D01*
X0029200Y0088443D01*
X0025501Y0084743D01*
X0024657Y0083899D01*
X0024200Y0082797D01*
X0024200Y0082343D01*
X0023858Y0082202D01*
X0022198Y0080542D01*
X0021300Y0078374D01*
X0021300Y0076026D01*
X0022198Y0073858D01*
X0023858Y0072198D01*
X0026026Y0071300D01*
X0028374Y0071300D01*
X0030542Y0072198D01*
X0032200Y0073856D01*
X0033858Y0072198D01*
X0036026Y0071300D01*
X0038374Y0071300D01*
X0040542Y0072198D01*
X0042202Y0073858D01*
X0043100Y0076026D01*
X0043100Y0078374D01*
X0042202Y0080542D01*
X0040993Y0081751D01*
X0044743Y0085501D01*
X0045200Y0086603D01*
X0045200Y0092057D01*
X0047347Y0094209D02*
X0062102Y0094209D01*
X0061320Y0096608D02*
X0048100Y0096608D01*
X0047838Y0099006D02*
X0061583Y0099006D01*
X0063061Y0101405D02*
X0046339Y0101405D01*
X0038061Y0101405D02*
X0036339Y0101405D01*
X0028061Y0101405D02*
X0026339Y0101405D01*
X0018061Y0101405D02*
X0016339Y0101405D01*
X0012200Y0101405D02*
X0012200Y0101405D01*
X0012200Y0099006D02*
X0012200Y0099006D01*
X0012200Y0097200D02*
X0006300Y0097200D01*
X0006300Y0096736D01*
X0006445Y0095818D01*
X0006732Y0094935D01*
X0007154Y0094108D01*
X0007700Y0093356D01*
X0008356Y0092700D01*
X0009108Y0092154D01*
X0009935Y0091732D01*
X0010818Y0091445D01*
X0011736Y0091300D01*
X0012200Y0091300D01*
X0012200Y0097200D01*
X0012200Y0097200D01*
X0012200Y0096608D02*
X0012200Y0096608D01*
X0012200Y0094209D02*
X0012200Y0094209D01*
X0012200Y0091811D02*
X0012200Y0091811D01*
X0014619Y0091811D02*
X0019793Y0091811D01*
X0024607Y0091811D02*
X0029200Y0091811D01*
X0029200Y0089412D02*
X0004400Y0089412D01*
X0004400Y0087014D02*
X0027771Y0087014D01*
X0025373Y0084615D02*
X0004400Y0084615D01*
X0004400Y0082217D02*
X0023894Y0082217D01*
X0021898Y0079818D02*
X0004400Y0079818D01*
X0004400Y0077420D02*
X0021300Y0077420D01*
X0021716Y0075021D02*
X0004400Y0075021D01*
X0004400Y0072623D02*
X0023433Y0072623D01*
X0030967Y0072623D02*
X0033433Y0072623D01*
X0040967Y0072623D02*
X0049400Y0072623D01*
X0049806Y0070224D02*
X0004400Y0070224D01*
X0004400Y0067826D02*
X0051895Y0067826D01*
X0050556Y0065427D02*
X0004400Y0065427D01*
X0004400Y0063029D02*
X0033786Y0063029D01*
X0031388Y0060630D02*
X0004400Y0060630D01*
X0004400Y0058232D02*
X0028989Y0058232D01*
X0026591Y0055833D02*
X0004400Y0055833D01*
X0004400Y0053435D02*
X0024464Y0053435D01*
X0022692Y0051036D02*
X0004400Y0051036D01*
X0004400Y0048638D02*
X0021409Y0048638D01*
X0021300Y0046239D02*
X0004400Y0046239D01*
X0004400Y0043841D02*
X0022215Y0043841D01*
X0023098Y0041442D02*
X0004400Y0041442D01*
X0004400Y0039044D02*
X0021578Y0039044D01*
X0021300Y0036645D02*
X0004400Y0036645D01*
X0004400Y0034247D02*
X0022037Y0034247D01*
X0024703Y0031848D02*
X0004400Y0031848D01*
X0004400Y0029450D02*
X0050127Y0029450D01*
X0050161Y0029368D02*
X0051568Y0027961D01*
X0053405Y0027200D01*
X0051568Y0026439D01*
X0050161Y0025032D01*
X0049400Y0023195D01*
X0049400Y0021205D01*
X0050161Y0019368D01*
X0051568Y0017961D01*
X0053405Y0017200D01*
X0060995Y0017200D01*
X0062832Y0017961D01*
X0064239Y0019368D01*
X0065000Y0021205D01*
X0065000Y0023195D01*
X0064239Y0025032D01*
X0062832Y0026439D01*
X0060995Y0027200D01*
X0062832Y0027961D01*
X0064071Y0029200D01*
X0067797Y0029200D01*
X0068899Y0029657D01*
X0078443Y0039200D01*
X0080329Y0039200D01*
X0081568Y0037961D01*
X0083405Y0037200D01*
X0090995Y0037200D01*
X0092832Y0037961D01*
X0094239Y0039368D01*
X0095000Y0041205D01*
X0095000Y0043195D01*
X0094239Y0045032D01*
X0092832Y0046439D01*
X0090995Y0047200D01*
X0083405Y0047200D01*
X0081568Y0046439D01*
X0080329Y0045200D01*
X0076603Y0045200D01*
X0075501Y0044743D01*
X0065957Y0035200D01*
X0064071Y0035200D01*
X0062832Y0036439D01*
X0060995Y0037200D01*
X0053405Y0037200D01*
X0051568Y0036439D01*
X0050161Y0035032D01*
X0049400Y0033195D01*
X0049400Y0031205D01*
X0050161Y0029368D01*
X0053046Y0027051D02*
X0004400Y0027051D01*
X0004400Y0024653D02*
X0050004Y0024653D01*
X0049400Y0022254D02*
X0004400Y0022254D01*
X0004400Y0019856D02*
X0049959Y0019856D01*
X0052785Y0017457D02*
X0004400Y0017457D01*
X0004400Y0015059D02*
X0095099Y0015059D01*
X0095501Y0014657D02*
X0096603Y0014200D01*
X0102057Y0014200D01*
X0102198Y0013858D01*
X0103858Y0012198D01*
X0106026Y0011300D01*
X0108374Y0011300D01*
X0110542Y0012198D01*
X0112144Y0013800D01*
X0112876Y0013800D01*
X0114126Y0014318D01*
X0115082Y0015274D01*
X0120082Y0020274D01*
X0120600Y0021524D01*
X0120600Y0037256D01*
X0122200Y0038856D01*
X0123858Y0037198D01*
X0126026Y0036300D01*
X0128374Y0036300D01*
X0130542Y0037198D01*
X0132202Y0038858D01*
X0132250Y0038975D01*
X0132700Y0038356D01*
X0133356Y0037700D01*
X0134108Y0037154D01*
X0134935Y0036732D01*
X0135818Y0036445D01*
X0136736Y0036300D01*
X0137200Y0036300D01*
X0137664Y0036300D01*
X0138582Y0036445D01*
X0139465Y0036732D01*
X0140292Y0037154D01*
X0141044Y0037700D01*
X0141700Y0038356D01*
X0142246Y0039108D01*
X0142668Y0039935D01*
X0142955Y0040818D01*
X0143100Y0041736D01*
X0143100Y0042200D01*
X0143100Y0042664D01*
X0142955Y0043582D01*
X0142668Y0044465D01*
X0142246Y0045292D01*
X0141700Y0046044D01*
X0141044Y0046700D01*
X0140292Y0047246D01*
X0139465Y0047668D01*
X0138582Y0047955D01*
X0137664Y0048100D01*
X0137200Y0048100D01*
X0137200Y0042200D01*
X0137200Y0042200D01*
X0143100Y0042200D01*
X0137200Y0042200D01*
X0137200Y0042200D01*
X0137200Y0048100D01*
X0136736Y0048100D01*
X0135818Y0047955D01*
X0134935Y0047668D01*
X0134108Y0047246D01*
X0133356Y0046700D01*
X0132700Y0046044D01*
X0132250Y0045425D01*
X0132202Y0045542D01*
X0130542Y0047202D01*
X0128374Y0048100D01*
X0126026Y0048100D01*
X0123858Y0047202D01*
X0122200Y0045544D01*
X0120542Y0047202D01*
X0118374Y0048100D01*
X0116026Y0048100D01*
X0113858Y0047202D01*
X0112198Y0045542D01*
X0111300Y0043374D01*
X0111300Y0041026D01*
X0112198Y0038858D01*
X0113800Y0037256D01*
X0113800Y0023608D01*
X0111468Y0021276D01*
X0110544Y0022200D01*
X0112202Y0023858D01*
X0113100Y0026026D01*
X0113100Y0028374D01*
X0112202Y0030542D01*
X0110542Y0032202D01*
X0108374Y0033100D01*
X0106026Y0033100D01*
X0103858Y0032202D01*
X0102198Y0030542D01*
X0101300Y0028374D01*
X0101300Y0026026D01*
X0102198Y0023858D01*
X0103856Y0022200D01*
X0102198Y0020542D01*
X0102057Y0020200D01*
X0098443Y0020200D01*
X0094683Y0023959D01*
X0094239Y0025032D01*
X0092832Y0026439D01*
X0090995Y0027200D01*
X0083405Y0027200D01*
X0081568Y0026439D01*
X0080161Y0025032D01*
X0079400Y0023195D01*
X0079400Y0021205D01*
X0080161Y0019368D01*
X0081568Y0017961D01*
X0083405Y0017200D01*
X0090995Y0017200D01*
X0092382Y0017775D01*
X0094657Y0015501D01*
X0095501Y0014657D01*
X0092700Y0017457D02*
X0091615Y0017457D01*
X0096389Y0022254D02*
X0103802Y0022254D01*
X0101869Y0024653D02*
X0094396Y0024653D01*
X0091354Y0027051D02*
X0101300Y0027051D01*
X0101746Y0029450D02*
X0094273Y0029450D01*
X0094239Y0029368D02*
X0095000Y0031205D01*
X0095000Y0033195D01*
X0094239Y0035032D01*
X0092832Y0036439D01*
X0090995Y0037200D01*
X0083405Y0037200D01*
X0081568Y0036439D01*
X0080161Y0035032D01*
X0079400Y0033195D01*
X0079400Y0031205D01*
X0080161Y0029368D01*
X0081568Y0027961D01*
X0083405Y0027200D01*
X0090995Y0027200D01*
X0092832Y0027961D01*
X0094239Y0029368D01*
X0095000Y0031848D02*
X0103504Y0031848D01*
X0110896Y0031848D02*
X0113800Y0031848D01*
X0113800Y0034247D02*
X0094564Y0034247D01*
X0092334Y0036645D02*
X0113800Y0036645D01*
X0112121Y0039044D02*
X0093915Y0039044D01*
X0095000Y0041442D02*
X0111300Y0041442D01*
X0111493Y0043841D02*
X0094732Y0043841D01*
X0093032Y0046239D02*
X0112895Y0046239D01*
X0117200Y0042200D02*
X0117200Y0022200D01*
X0112200Y0017200D01*
X0107200Y0017200D01*
X0103396Y0012660D02*
X0039480Y0012660D01*
X0037200Y0012660D02*
X0037200Y0012660D01*
X0034920Y0012660D02*
X0029480Y0012660D01*
X0027200Y0012660D02*
X0027200Y0012660D01*
X0027200Y0013100D02*
X0026736Y0013100D01*
X0025818Y0012955D01*
X0024935Y0012668D01*
X0024108Y0012246D01*
X0023356Y0011700D01*
X0022700Y0011044D01*
X0022154Y0010292D01*
X0021732Y0009465D01*
X0021445Y0008582D01*
X0021300Y0007664D01*
X0021300Y0007200D01*
X0027200Y0007200D01*
X0027200Y0007200D01*
X0027200Y0013100D01*
X0024920Y0012660D02*
X0004400Y0012660D01*
X0004400Y0010262D02*
X0022138Y0010262D01*
X0021331Y0007863D02*
X0004400Y0007863D01*
X0004400Y0005465D02*
X0021560Y0005465D01*
X0021500Y0007200D02*
X0012200Y0007200D01*
X0012200Y0012200D01*
X0027200Y0010262D02*
X0027200Y0010262D01*
X0027200Y0007863D02*
X0027200Y0007863D01*
X0037200Y0007863D02*
X0037200Y0007863D01*
X0037200Y0010262D02*
X0037200Y0010262D01*
X0042262Y0010262D02*
X0143701Y0010262D01*
X0143701Y0012660D02*
X0141004Y0012660D01*
X0140542Y0012198D02*
X0142202Y0013858D01*
X0143100Y0016026D01*
X0143100Y0018374D01*
X0142202Y0020542D01*
X0140542Y0022202D01*
X0140425Y0022250D01*
X0141044Y0022700D01*
X0141700Y0023356D01*
X0142246Y0024108D01*
X0142668Y0024935D01*
X0142955Y0025818D01*
X0143100Y0026736D01*
X0143100Y0027200D01*
X0143100Y0027664D01*
X0142955Y0028582D01*
X0142668Y0029465D01*
X0142246Y0030292D01*
X0141700Y0031044D01*
X0141044Y0031700D01*
X0140292Y0032246D01*
X0139465Y0032668D01*
X0138582Y0032955D01*
X0137664Y0033100D01*
X0137200Y0033100D01*
X0137200Y0027200D01*
X0143100Y0027200D01*
X0137200Y0027200D01*
X0137200Y0027200D01*
X0137200Y0027200D01*
X0137200Y0027200D01*
X0131300Y0027200D01*
X0131300Y0027664D01*
X0131445Y0028582D01*
X0131732Y0029465D01*
X0132154Y0030292D01*
X0132700Y0031044D01*
X0133356Y0031700D01*
X0134108Y0032246D01*
X0134935Y0032668D01*
X0135818Y0032955D01*
X0136736Y0033100D01*
X0137200Y0033100D01*
X0137200Y0027200D01*
X0131300Y0027200D01*
X0131300Y0026736D01*
X0131445Y0025818D01*
X0131732Y0024935D01*
X0132154Y0024108D01*
X0132700Y0023356D01*
X0133356Y0022700D01*
X0133975Y0022250D01*
X0133858Y0022202D01*
X0132198Y0020542D01*
X0131300Y0018374D01*
X0131300Y0016026D01*
X0132198Y0013858D01*
X0133858Y0012198D01*
X0136026Y0011300D01*
X0138374Y0011300D01*
X0140542Y0012198D01*
X0142699Y0015059D02*
X0143701Y0015059D01*
X0143701Y0017457D02*
X0143100Y0017457D01*
X0143701Y0019856D02*
X0142486Y0019856D01*
X0143701Y0022254D02*
X0140430Y0022254D01*
X0142524Y0024653D02*
X0143701Y0024653D01*
X0143701Y0027051D02*
X0143100Y0027051D01*
X0142673Y0029450D02*
X0143701Y0029450D01*
X0143701Y0031848D02*
X0140840Y0031848D01*
X0143701Y0034247D02*
X0120600Y0034247D01*
X0120600Y0036645D02*
X0125193Y0036645D01*
X0129207Y0036645D02*
X0135203Y0036645D01*
X0137200Y0036645D02*
X0137200Y0036645D01*
X0137200Y0036300D02*
X0137200Y0042200D01*
X0137200Y0042200D01*
X0137200Y0036300D01*
X0139197Y0036645D02*
X0143701Y0036645D01*
X0143701Y0039044D02*
X0142200Y0039044D01*
X0143054Y0041442D02*
X0143701Y0041442D01*
X0143701Y0043841D02*
X0142871Y0043841D01*
X0143701Y0046239D02*
X0141505Y0046239D01*
X0143701Y0048638D02*
X0093509Y0048638D01*
X0094930Y0051036D02*
X0143701Y0051036D01*
X0143701Y0053435D02*
X0094901Y0053435D01*
X0093438Y0055833D02*
X0143701Y0055833D01*
X0143701Y0058232D02*
X0141576Y0058232D01*
X0142894Y0060630D02*
X0143701Y0060630D01*
X0143701Y0063029D02*
X0143042Y0063029D01*
X0143701Y0065427D02*
X0142148Y0065427D01*
X0143701Y0067826D02*
X0138978Y0067826D01*
X0137200Y0067826D02*
X0137200Y0067826D01*
X0135422Y0067826D02*
X0129035Y0067826D01*
X0132249Y0065427D02*
X0132252Y0065427D01*
X0137200Y0065427D02*
X0137200Y0065427D01*
X0137200Y0063029D02*
X0137200Y0063029D01*
X0137200Y0060630D02*
X0137200Y0060630D01*
X0137200Y0058232D02*
X0137200Y0058232D01*
X0132824Y0058232D02*
X0131576Y0058232D01*
X0122824Y0058232D02*
X0121576Y0058232D01*
X0117200Y0062200D02*
X0117200Y0082200D01*
X0112200Y0087200D01*
X0107200Y0087200D01*
X0110561Y0082217D02*
X0112375Y0082217D01*
X0112502Y0079818D02*
X0113800Y0079818D01*
X0113800Y0077420D02*
X0113100Y0077420D01*
X0112684Y0075021D02*
X0113800Y0075021D01*
X0113800Y0072623D02*
X0110967Y0072623D01*
X0113800Y0070224D02*
X0104467Y0070224D01*
X0101300Y0077420D02*
X0091525Y0077420D01*
X0082875Y0077420D02*
X0061525Y0077420D01*
X0060995Y0077200D02*
X0060200Y0077200D01*
X0060200Y0077200D01*
X0060995Y0077200D01*
X0064425Y0079818D02*
X0079975Y0079818D01*
X0080157Y0075021D02*
X0068228Y0075021D01*
X0071020Y0072623D02*
X0079400Y0072623D01*
X0079806Y0070224D02*
X0073418Y0070224D01*
X0075817Y0067826D02*
X0081895Y0067826D01*
X0080556Y0065427D02*
X0078215Y0065427D01*
X0074527Y0060630D02*
X0064762Y0060630D01*
X0065000Y0063029D02*
X0072129Y0063029D01*
X0069730Y0065427D02*
X0063844Y0065427D01*
X0062505Y0067826D02*
X0067332Y0067826D01*
X0063103Y0058232D02*
X0081297Y0058232D01*
X0080962Y0055833D02*
X0063438Y0055833D01*
X0063257Y0056014D02*
X0062621Y0056476D01*
X0061919Y0056834D01*
X0061171Y0057077D01*
X0060394Y0057200D01*
X0057200Y0057200D01*
X0057200Y0052200D01*
X0057200Y0052200D01*
X0065000Y0052200D01*
X0065000Y0052594D01*
X0064877Y0053371D01*
X0064634Y0054119D01*
X0064276Y0054821D01*
X0063814Y0055457D01*
X0063257Y0056014D01*
X0064856Y0053435D02*
X0079499Y0053435D01*
X0079470Y0051036D02*
X0064878Y0051036D01*
X0064877Y0051029D02*
X0065000Y0051806D01*
X0065000Y0052200D01*
X0057200Y0052200D01*
X0057200Y0052200D01*
X0057200Y0057200D01*
X0054006Y0057200D01*
X0053229Y0057077D01*
X0052481Y0056834D01*
X0051779Y0056476D01*
X0051143Y0056014D01*
X0050586Y0055457D01*
X0050124Y0054821D01*
X0049766Y0054119D01*
X0049523Y0053371D01*
X0049400Y0052594D01*
X0049400Y0052200D01*
X0057200Y0052200D01*
X0057200Y0047200D01*
X0060394Y0047200D01*
X0061171Y0047323D01*
X0061919Y0047566D01*
X0062621Y0047924D01*
X0063257Y0048386D01*
X0063814Y0048943D01*
X0064276Y0049579D01*
X0064634Y0050281D01*
X0064877Y0051029D01*
X0063509Y0048638D02*
X0080891Y0048638D01*
X0081368Y0046239D02*
X0063032Y0046239D01*
X0064732Y0043841D02*
X0074598Y0043841D01*
X0072200Y0041442D02*
X0065000Y0041442D01*
X0063915Y0039044D02*
X0069801Y0039044D01*
X0067403Y0036645D02*
X0062334Y0036645D01*
X0071091Y0031848D02*
X0079400Y0031848D01*
X0079836Y0034247D02*
X0073489Y0034247D01*
X0075888Y0036645D02*
X0082066Y0036645D01*
X0080485Y0039044D02*
X0078286Y0039044D01*
X0080127Y0029450D02*
X0068399Y0029450D01*
X0064396Y0024653D02*
X0080004Y0024653D01*
X0079400Y0022254D02*
X0065000Y0022254D01*
X0064441Y0019856D02*
X0079959Y0019856D01*
X0082785Y0017457D02*
X0061615Y0017457D01*
X0061354Y0027051D02*
X0083046Y0027051D01*
X0060995Y0027200D02*
X0060200Y0027200D01*
X0060200Y0027200D01*
X0060995Y0027200D01*
X0054200Y0027200D02*
X0053405Y0027200D01*
X0054200Y0027200D01*
X0054200Y0027200D01*
X0049400Y0031848D02*
X0039697Y0031848D01*
X0042363Y0034247D02*
X0049836Y0034247D01*
X0052066Y0036645D02*
X0043100Y0036645D01*
X0042822Y0039044D02*
X0050485Y0039044D01*
X0051368Y0046239D02*
X0043100Y0046239D01*
X0042991Y0048638D02*
X0050891Y0048638D01*
X0051143Y0048386D02*
X0051779Y0047924D01*
X0052481Y0047566D01*
X0053229Y0047323D01*
X0054006Y0047200D01*
X0057200Y0047200D01*
X0057200Y0052200D01*
X0057200Y0052200D01*
X0057200Y0052200D01*
X0049400Y0052200D01*
X0049400Y0051806D01*
X0049523Y0051029D01*
X0049766Y0050281D01*
X0050124Y0049579D01*
X0050586Y0048943D01*
X0051143Y0048386D01*
X0049522Y0051036D02*
X0041708Y0051036D01*
X0035076Y0055833D02*
X0050962Y0055833D01*
X0051297Y0058232D02*
X0037474Y0058232D01*
X0032677Y0053435D02*
X0049544Y0053435D01*
X0057200Y0053435D02*
X0057200Y0053435D01*
X0057200Y0051036D02*
X0057200Y0051036D01*
X0057200Y0048638D02*
X0057200Y0048638D01*
X0057200Y0055833D02*
X0057200Y0055833D01*
X0050157Y0075021D02*
X0042684Y0075021D01*
X0043100Y0077420D02*
X0052875Y0077420D01*
X0053405Y0077200D02*
X0054200Y0077200D01*
X0054200Y0077200D01*
X0053405Y0077200D01*
X0049975Y0079818D02*
X0042502Y0079818D01*
X0041460Y0082217D02*
X0049400Y0082217D01*
X0049989Y0084615D02*
X0043858Y0084615D01*
X0045200Y0087014D02*
X0052956Y0087014D01*
X0045200Y0089412D02*
X0067200Y0089412D01*
X0067200Y0087014D02*
X0061444Y0087014D01*
X0064411Y0084615D02*
X0067200Y0084615D01*
X0067200Y0082217D02*
X0065000Y0082217D01*
X0072200Y0087200D02*
X0097200Y0087200D01*
X0107200Y0097200D01*
X0130276Y0097200D01*
X0130276Y0098577D01*
X0131330Y0101122D01*
X0133278Y0103070D01*
X0135823Y0104124D01*
X0138577Y0104124D01*
X0141122Y0103070D01*
X0143070Y0101122D01*
X0143701Y0099600D01*
X0143701Y0104961D01*
X0072200Y0104961D01*
X0072200Y0100544D01*
X0072202Y0100542D01*
X0072250Y0100425D01*
X0072700Y0101044D01*
X0073356Y0101700D01*
X0074108Y0102246D01*
X0074935Y0102668D01*
X0075818Y0102955D01*
X0076736Y0103100D01*
X0077200Y0103100D01*
X0077200Y0097200D01*
X0077200Y0097200D01*
X0083100Y0097200D01*
X0083100Y0097664D01*
X0082955Y0098582D01*
X0082668Y0099465D01*
X0082246Y0100292D01*
X0081700Y0101044D01*
X0081044Y0101700D01*
X0080292Y0102246D01*
X0079465Y0102668D01*
X0078582Y0102955D01*
X0077664Y0103100D01*
X0077200Y0103100D01*
X0077200Y0097200D01*
X0077200Y0097200D01*
X0083100Y0097200D01*
X0083100Y0096736D01*
X0082955Y0095818D01*
X0082668Y0094935D01*
X0082246Y0094108D01*
X0081700Y0093356D01*
X0081044Y0092700D01*
X0080292Y0092154D01*
X0079465Y0091732D01*
X0078582Y0091445D01*
X0077664Y0091300D01*
X0077200Y0091300D01*
X0077200Y0097200D01*
X0077200Y0097200D01*
X0077200Y0091300D01*
X0076736Y0091300D01*
X0075818Y0091445D01*
X0074935Y0091732D01*
X0074108Y0092154D01*
X0073356Y0092700D01*
X0072700Y0093356D01*
X0072250Y0093975D01*
X0072202Y0093858D01*
X0072200Y0093856D01*
X0072200Y0087200D01*
X0072200Y0089412D02*
X0099412Y0089412D01*
X0101811Y0091811D02*
X0079619Y0091811D01*
X0077200Y0091811D02*
X0077200Y0091811D01*
X0074781Y0091811D02*
X0072200Y0091811D01*
X0077200Y0094209D02*
X0077200Y0094209D01*
X0077200Y0096608D02*
X0077200Y0096608D01*
X0077200Y0099006D02*
X0077200Y0099006D01*
X0077200Y0101405D02*
X0077200Y0101405D01*
X0081339Y0101405D02*
X0131612Y0101405D01*
X0130453Y0099006D02*
X0082817Y0099006D01*
X0083080Y0096608D02*
X0106608Y0096608D01*
X0104209Y0094209D02*
X0082298Y0094209D01*
X0073061Y0101405D02*
X0072200Y0101405D01*
X0072200Y0103803D02*
X0135048Y0103803D01*
X0139352Y0103803D02*
X0143701Y0103803D01*
X0143701Y0101405D02*
X0142788Y0101405D01*
X0137200Y0097200D02*
X0142200Y0092200D01*
X0140933Y0091811D02*
X0143701Y0091811D01*
X0143701Y0089412D02*
X0142670Y0089412D01*
X0143100Y0087014D02*
X0143701Y0087014D01*
X0143701Y0084615D02*
X0142516Y0084615D01*
X0143701Y0082217D02*
X0140561Y0082217D01*
X0142488Y0079818D02*
X0143701Y0079818D01*
X0143701Y0077420D02*
X0143100Y0077420D01*
X0142696Y0075021D02*
X0143701Y0075021D01*
X0143701Y0072623D02*
X0140938Y0072623D01*
X0143701Y0070224D02*
X0120600Y0070224D01*
X0120600Y0072623D02*
X0133462Y0072623D01*
X0133356Y0072700D02*
X0134108Y0072154D01*
X0134935Y0071732D01*
X0135818Y0071445D01*
X0136736Y0071300D01*
X0137200Y0071300D01*
X0137200Y0077200D01*
X0131300Y0077200D01*
X0131300Y0076736D01*
X0131445Y0075818D01*
X0131732Y0074935D01*
X0132154Y0074108D01*
X0132700Y0073356D01*
X0133356Y0072700D01*
X0131704Y0075021D02*
X0120600Y0075021D01*
X0120600Y0077420D02*
X0131300Y0077420D01*
X0131912Y0079818D02*
X0120600Y0079818D01*
X0120600Y0082217D02*
X0133839Y0082217D01*
X0131884Y0084615D02*
X0119593Y0084615D01*
X0117194Y0087014D02*
X0131300Y0087014D01*
X0131730Y0089412D02*
X0114796Y0089412D01*
X0111811Y0091811D02*
X0133467Y0091811D01*
X0137200Y0075021D02*
X0137200Y0075021D01*
X0137200Y0072623D02*
X0137200Y0072623D01*
X0125365Y0067826D02*
X0120600Y0067826D01*
X0113800Y0067826D02*
X0092505Y0067826D01*
X0093844Y0065427D02*
X0112151Y0065427D01*
X0111300Y0063029D02*
X0095000Y0063029D01*
X0094762Y0060630D02*
X0111464Y0060630D01*
X0112824Y0058232D02*
X0093103Y0058232D01*
X0121505Y0046239D02*
X0122895Y0046239D01*
X0131505Y0046239D02*
X0132895Y0046239D01*
X0137200Y0046239D02*
X0137200Y0046239D01*
X0137200Y0043841D02*
X0137200Y0043841D01*
X0137200Y0041442D02*
X0137200Y0041442D01*
X0137200Y0039044D02*
X0137200Y0039044D01*
X0137200Y0031848D02*
X0137200Y0031848D01*
X0133560Y0031848D02*
X0120600Y0031848D01*
X0120600Y0029450D02*
X0131727Y0029450D01*
X0131300Y0027051D02*
X0120600Y0027051D01*
X0120600Y0024653D02*
X0131876Y0024653D01*
X0133970Y0022254D02*
X0120600Y0022254D01*
X0119664Y0019856D02*
X0131914Y0019856D01*
X0131300Y0017457D02*
X0117265Y0017457D01*
X0114867Y0015059D02*
X0131701Y0015059D01*
X0133396Y0012660D02*
X0111004Y0012660D01*
X0110598Y0022254D02*
X0112446Y0022254D01*
X0112531Y0024653D02*
X0113800Y0024653D01*
X0113800Y0027051D02*
X0113100Y0027051D01*
X0112654Y0029450D02*
X0113800Y0029450D01*
X0137200Y0029450D02*
X0137200Y0029450D01*
X0143701Y0007863D02*
X0043069Y0007863D01*
X0042840Y0005465D02*
X0143701Y0005465D01*
X0034703Y0031848D02*
X0029697Y0031848D01*
X0031708Y0051036D02*
X0032692Y0051036D01*
X0009781Y0091811D02*
X0004400Y0091811D01*
X0004400Y0094209D02*
X0007102Y0094209D01*
X0006320Y0096608D02*
X0004400Y0096608D01*
X0004400Y0099006D02*
X0006583Y0099006D01*
X0008061Y0101405D02*
X0004400Y0101405D01*
D14*
X0012200Y0012200D03*
X0137200Y0097200D03*
M02*
